\select@language {russian}
\contentsline {chapter}{\numberline {1}\IeC {\CYRU }\IeC {\cyrs }\IeC {\cyrt }\IeC {\cyra }\IeC {\cyrn }\IeC {\cyro }\IeC {\cyrv }\IeC {\cyrk }\IeC {\cyra } LaTeX}{2}{chapter.1}
\contentsline {chapter}{\numberline {2}\IeC {\CYRZ }\IeC {\cyra }\IeC {\cyrm }\IeC {\cyre }\IeC {\cyrch }\IeC {\cyra }\IeC {\cyrn }\IeC {\cyri }\IeC {\cyrya } \IeC {\cyrp }\IeC {\cyro } \IeC {\cyrr }\IeC {\cyra }\IeC {\cyrb }\IeC {\cyro }\IeC {\cyrt }\IeC {\cyre } \IeC {\cyrs } LaTeX}{3}{chapter.2}
